...............
----------------------------------------------------------------------
Ran 15 tests in 0.403s

OK
Name             Stmts   Miss Branch BrPart  Cover   Missing
------------------------------------------------------------
Collatz.py          34      0     12      0   100%
TestCollatz.py      68      0      0      0   100%
------------------------------------------------------------
TOTAL              102      0     12      0   100%
